"Location","Region","Sponsor","Sponsor URL","HTTP mirror","HTTPS mirror","Rsync link"
"Africa","Botswana","Retention Range (PTY) Ltd","http://www.retentionrange.co.bw/","http://mirror.retentionrange.co.bw/centOS/","",""
"Africa","Kenya","Liquid Telecom","https://www.liquidtelecom.com/","http://centos.mirror.liquidtelecom.com/","https://centos.mirror.liquidtelecom.com/","rsync://centos.mirror.liquidtelecom.com/centos/"
"Africa","Morocco","MARWAN","http://www.marwan.ma/","http://mirror.marwan.ma/centos/","https://mirror.marwan.ma/centos/","rsync://mirror.marwan.ma/centos/"
"Africa","South Africa","   psychz.net","http://www.psychz.net/","http://repos-jnb.psychz.net/centos/","","rsync://repos-jnb.psychz.net/Centos/"
"Africa","South Africa","Internet Solutions","http://www.is.co.za/","http://ftp.is.co.za/mirror/centos/","","rsync://ftp.is.co.za/mirror/centos/"
"Africa","South Africa","KVM.NET","http://www.kvm.net/","http://jnb.mirror.kvm.net/centos/","",""
"Africa","South Africa","Openserve","http://www.openserve.co.za/","http://www.ftp.saix.net/linux/distributions/centos/","https://www.ftp.saix.net/linux/distributions/centos/",""
"Africa","South Africa ","University of the Free State","http://www.ufs.ac.za/","http://mirror.ufs.ac.za/centos/","","rsync://mirror.ufs.ac.za/centos/"
"Africa","South Africa","WIRUlink","http://www.wiru.co.za/","http://mirror.wiru.co.za/centos/","","rsync://mirror.wiru.co.za/centos/"
"Africa","Tanzania","Aptus Solutions","http://www.aptus.co.tz/","http://mirror.aptus.co.tz/pub/centos/","https://mirror.aptus.co.tz/pub/centos/",""
"Africa","Tunisia","ATI and Dot TN","http://www.ati.tn/","http://fedora.mirror.tn/pub/centos/","",""
"Asia","Bangladesh"," CoLoCity","http://www.colocity.com.bd","http://mirror.myfahim.com/centos/","",""
"Asia","Bangladesh","dhakaCom Limited","http://www.dhakacom.com/","http://mirror.dhakacom.com/centos/","",""
"Asia","Bangladesh","XeonBD","https://www.xeonbd.com/","http://mirror.xeonbd.com/centos/","",""
"Asia","Cambodia","Cambo.Host Ltd","https://cambo.host","http://mirror.cambo.host/centos/","","rsync://mirror.cambo.host/centos/"
"Asia","China","Alibaba Cloud Computing","http://www.aliyun.com/","http://mirrors.aliyun.com/centos/","",""
"Asia","China","Beijing Foreign Studies University","http://global.bfsu.edu.cn/","http://mirrors.bfsu.edu.cn/centos/","https://mirrors.bfsu.edu.cn/centos/","rsync://mirrors.bfsu.edu.cn/centos/"
"Asia","China","Beijing Institute of Technology","http://www.bit.edu.cn/","http://mirror.bit.edu.cn/centos/","",""
"Asia","China","ChongQing University","http://lanunion.cqu.edu.cn/","http://mirrors.cqu.edu.cn/CentOS/","https://mirrors.cqu.edu.cn/CentOS/",""
"Asia","China","CN99 Corp.","http://www.cn99.com/","http://mirrors.cn99.com/centos/","",""
"Asia","China","Dalian Neusoft University of Information","http://www.neusoft.edu.cn/","http://mirrors.neusoft.edu.cn/centos/","",""
"Asia","China","HUAWEI CLOUD","https://www.huaweicloud.com/","http://mirrors.huaweicloud.com/centos/","https://mirrors.huaweicloud.com/centos/",""
"Asia","China","Nanjing University","https://www.nju.edu.cn/","http://mirrors.nju.edu.cn/centos/","",""
"Asia","China","Nanjing University of Posts and Telecommunications","http://www.njupt.edu.cn/","http://mirrors.njupt.edu.cn/centos/","https://mirrors.njupt.edu.cn/centos/",""
"Asia","China","NetEase","http://www.163.com/","http://mirrors.163.com/centos/","",""
"Asia","China","Shanghai Jiao Tong University","https://www.sjtu.edu.cn/","http://ftp.sjtu.edu.cn/centos/","https://ftp.sjtu.edu.cn/centos/",""
"Asia","China","Tsinghua University","http://www.tsinghua.edu.cn/","http://mirrors.tuna.tsinghua.edu.cn/centos/","https://mirrors.tuna.tsinghua.edu.cn/centos/","rsync://mirrors.tuna.tsinghua.edu.cn/centos/"
"Asia","China","University of Science and Tech of China","http://www.ustc.edu.cn/","http://mirrors.ustc.edu.cn/centos/","https://mirrors.ustc.edu.cn/centos/","rsync://rsync.mirrors.ustc.edu.cn/repo/centos/"
"Asia","Hong Kong","01LINK NETWORK SERVICES LIMITED","http://www.01link.net/","http://centos.01link.hk/","",""
"Asia","Hong Kong","CommuniLink Internet Limited","http://www.communilink.net/","http://centos.communilink.net/","",""
"Asia","Hong Kong","Forewin Telecom Group LTD","http://www.hkt.cc/","http://mirror.hkt.cc/centos/","https://mirror.hkt.cc/centos/",""
"Asia","Hong Kong","Gigabit Hosting","http://www.thegigabit.com/","http://hk.mirrors.thegigabit.com/centos/","",""
"Asia","Hong Kong","Hostlink(HK) Limited","https://www.hostlink.com.hk/","http://mirror.hostlink.com.hk/centos/","https://mirror.hostlink.com.hk/centos/","rsync://mirror.hostlink.com.hk/centos/"
"Asia","Hong Kong","i-System Technology Limited","http://www.uhost.hk/","http://centos.uhost.hk/","",""
"Asia","Hong Kong","ICIDC NETWORK","http://www.icidc.com/","http://mirrors.icidc.com/centos/","http://mirrors.icidc.com/centos/",""
"Asia","Hong Kong","KoDDoS Hong Kong","https://zh.koddos.net/","http://mirror-hk.koddos.net/centos/","https://mirror-hk.koddos.net/centos/","rsync://mirror-hk.koddos.net/centos/"
"Asia","Hong Kong","Nethub Online Limited","https://www.nethub.com.hk/","http://centos.nethub.com.hk/","",""
"Asia","Hong Kong","The Chinese University of Hong Kong","http://www.cuhk.edu.hk/","http://ftp.cuhk.edu.hk/pub/Linux/centos/","",""
"Asia","Hong Kong","UDomain Web Hosting Company Ltd.","http://www.udomain.com.hk/","http://repo.virtualhosting.hk/centos/","",""
"Asia","Hong Kong","Worria Hongkong Dedicated Server","https://www.worria.com/","http://mirror.worria.com/centos/","",""
"Asia","Hong Kong","xTom","https://xtom.com/","http://mirror.xtom.com.hk/centos/","https://mirror.xtom.com.hk/centos/","rsync://mirror.xtom.com.hk/repo/centos/"
"Asia","India","Esto Internet","https://estointernet.in/","http://centos.mirrors.estointernet.in/","https://centos.mirrors.estointernet.in/","rsync://centos.mirrors.estointernet.in/centos/"
"Asia","India","Excell Media Pvt. Ltd.","http://www.excellmedia.net/","http://centos.excellmedia.net/","",""
"Asia","India","Homi Bhabha Center For Science Education, TIFR","http://www.hbcse.tifr.res.in/","http://centos.hbcse.tifr.res.in/centos/","https://centos.hbcse.tifr.res.in/centos/","rsync://centos.hbcse.tifr.res.in/centos/"
"Asia","India","PicoNets WebWerks","http://piconets.com/","http://mirrors.piconets.webwerks.in/centos-mirror/","https://mirrors.piconets.webwerks.in/centos-mirror/",""
"Asia","India","Shiv Nadar University","http://snu.edu.in/","http://centos.mirror.snu.edu.in/centos/","",""
"Asia","Indonesia","BUANA dotnet by SUITEN.ID","https://buana.net/","http://mirror.buana.web.id/centos/","","rsync://mirror.buana.web.id/centos/"
"Asia","Indonesia","Computer Center, Jember University","http://www.unej.ac.id/","http://mirror.unej.ac.id/centos/","",""
"Asia","Indonesia","DATAUTAMA-NET-ID","http://datautama.net.id/","http://kartolo.sby.datautama.net.id/Centos/","",""
"Asia","Indonesia","IDroot Cloud ","https://idroot.cloud/","http://mirror.idroot.cloud/centos/","","rsync://mirror.idroot.cloud/centos/ "
"Asia","Indonesia","Laboratorium Komputer ID","https://labkom.id/","http://mirror.labkom.id/centos/","","rsync://mirror.labkom.id/centos/"
"Asia","Indonesia","PT. Angkasa Komunikasi Global Utama","http://www.angkasa.net.id/","http://centos.mirror.angkasa.id/centos/","","rsync://centos.mirror.angkasa.id/centos/"
"Asia","Indonesia","PT. Biznet Gio Nusantara","https://www.biznetgio.com/","http://mirror.biznetgio.com/centos/","",""
"Asia","Indonesia","PT. Orion Cyber Internet","http://orion.net.id/","http://mirror.dionipe.net/Centos/","",""
"Asia","Indonesia","State Polytechnic of Banyuwangi","http://www.poliwangi.ac.id/","http://mirror.poliwangi.ac.id/centos/","",""
"Asia","Indonesia","Telkom University","https://telkomuniversity.ac.id/","http://mirror.telkomuniversity.ac.id/centos/","https://mirror.telkomuniversity.ac.id/centos/",""
"Asia","Japan"," NewMedia Express Pte Ltd","https://www.newmediaexpress.com/","http://ty1.mirror.newmediaexpress.com/centos/","https://ty1.mirror.newmediaexpress.com/centos/",""
"Asia","Japan","Cat Networks K.K.","https://cat.net/","http://mirrors.cat.net/centos/","https://mirrors.cat.net/centos/",""
"Asia","Japan","Internet Initiative Japan Inc.","http://www.iij.ad.jp/","http://ftp.iij.ad.jp/pub/linux/centos/","","rsync://ftp.iij.ad.jp/centos/"
"Asia","Japan","JAIST","http://www.jaist.ac.jp/","http://ftp.jaist.ac.jp/pub/Linux/CentOS/","","rsync://ftp.jaist.ac.jp/pub/Linux/CentOS/"
"Asia","Japan","KDDI R&D Laboratories Inc.","http://www.kddilabs.jp/english/index.html","http://ftp-srv2.kddilabs.jp/Linux/packages/CentOS/","","rsync://rsync.kddilabs.jp/centos/"
"Asia","Japan","NARA Inst of Science and Technology","http://www.naist.jp/","http://ftp.nara.wide.ad.jp/pub/Linux/centos/","","rsync://ftp.nara.wide.ad.jp/centos/"
"Asia","Japan","RIKEN Research Institute","http://www.riken.jp/","http://ftp.riken.jp/Linux/centos/","","rsync://ftp.riken.jp/centos/"
"Asia","Japan","WIDEProject Tsukuba NOC","","http://ftp.tsukuba.wide.ad.jp/Linux/centos/","",""
"Asia","Japan","Yamagata University","http://www.yamagata-u.ac.jp/","http://ftp.yz.yamagata-u.ac.jp/pub/linux/centos/","https://ftp.yz.yamagata-u.ac.jp/pub/linux/centos/","rsync://ftp.yz.yamagata-u.ac.jp/pub/linux/centos/"
"Asia","Kazakhstan","  LLP Kompaniya Hoster.KZ","https://hoster.kz/","http://capital.hoster.kz/centos/","https://capital.hoster.kz/centos/","rsync://capital.hoster.kz/centos/"
"Asia","Kazakhstan","LLP Kompaniya Hoster.KZ","https://hoster.kz/","http://mirror.hoster.kz/centos/","https://mirror.hoster.kz/centos/","rsync://mirror.hoster.kz/centos/"
"Asia","Kazakhstan","Megahost Kazakhstan LLP","https://megahost.kz/","http://mirror.megahost.kz/centos/","",""
"Asia","Kazakhstan","Neolabs LLP","http://neolabs.kz","http://mirror.neolabs.kz/centos/","","rsync://mirror.neolabs.kz/centos/"
"Asia","Kazakhstan","PS Internet Company LLC","https://www.ps.kz/","http://mirror.ps.kz/centos/","https://mirror.ps.kz/centos/","rsync://mirror.ps.kz/centos/"
"Asia","Malaysia"," Gigabit Hosting","http://www.thegigabit.com/","http://my.mirrors.thegigabit.com/centos/","",""
"Asia","Malaysia","Exabytes Network Sdn. Bhd","http://www.exabytes.com.my/","http://centos.exabytes.com.my/main/","",""
"Asia","Malaysia","GB Network Solutions Sdn. Bhd.","https://www.gbnetwork.my/","http://centos.gbnetwork.my/centos/","","rsync://centos.gbnetwork.my/centos/"
"Asia","Malaysia","IP ServerOne Solutions Sdn Bhd","http://www.ipserverone.com/","http://centos.ipserverone.com/centos/","",""
"Asia","Malaysia","myduniahosting.com","https://www.myduniahosting.com/","http://centos.mirror.myduniahost.com/centos/","",""
"Asia","Malaysia","Net Onboard Sdn Bhd","http://www.netonboard.com/","http://centos.netonboard.com/centos/","",""
"Asia","Malaysia","Shinjiru Technology Sdn. Bhd.","https://www.shinjiru.com/","http://centos.shinjiru.com/centos/","","rsync://centos.shinjiru.com/centos/"
"Asia","Malaysia","TITAN System Integration Sdn. Bhd.","https://www.titansi.com.my/","http://mirror.titansi.com.my/centos/","https://mirror.titansi.com.my/centos/",""
"Asia","Malaysia","Universiti Teknologi Malaysia","http://www.utm.my/","http://ossm.utm.my/centos/","",""
"Asia","Mongolia","Mongolian National Data Center","https://datacenter.gov.mn/","http://mirror.datacenter.mn/centos/","",""
"Asia","Pakistan","Gemnet Enterprise Solutions (Pvt) Ltd.","http://www.ges.net.pk/","http://mirrors.ges.net.pk/centos/","",""
"Asia","Pakistan","Inara Technologies (Pvt) Ltd.","https://inara.pk/","http://repo.inara.pk/centos/","https://repo.inara.pk/centos/",""
"Asia","Pakistan","Isra University Hyderabad","https://www.isra.edu.pk/","http://repo.isra.edu.pk/centos/","https://repo.isra.edu.pk/centos/",""
"Asia","Philippines","RISE","https://rise.ph/","http://mirror.rise.ph/centos/","",""
"Asia","Singapore"," National University of Singapore","http://download.nus.edu.sg/","http://download.nus.edu.sg/mirror/centos/","",""
"Asia","Singapore","-","","http://mirror.aktkn.sg/centos/","https://mirror.aktkn.sg/centos/","rsync://mirror.aktkn.sg/centos/"
"Asia","Singapore","National University of Singapore","http://www.comp.nus.edu.sg/","http://mirror.nus.edu.sg/centos/","",""
"Asia","Singapore","NewMedia Express Pte Ltd","https://www.newmediaexpress.com/","http://mirror.newmediaexpress.com/centos/","https://mirror.newmediaexpress.com/centos/",""
"Asia","Singapore","USONYX PTE. LTD.","http://www.usonyx.net/","http://centos.usonyx.net/main/","",""
"Asia","Singapore","Vastspace","https://www.vastspace.net/","http://mirror.vastspace.net/centos/","",""
"Asia","Singapore","Vodien Internet Solutions Pte Ltd.","http://www.vodien.com/","http://mirror.vodien.com/centos/","",""
"Asia","South Korea","KAIST","http://www.kaist.ac.kr/","http://ftp.kaist.ac.kr/CentOS/","","rsync://ftp.kaist.ac.kr/CentOS/"
"Asia","South Korea","Kakao Corp.","http://kakaocorp.com/","http://mirror.kakao.com/centos/","",""
"Asia","South Korea","NAVER Business Platform","http://www.nbp-corp.com/","http://mirror.navercorp.com/centos/","",""
"Asia","South Korea","Open Source Consulting ","https://osci.kr/","http://mirror.opensourcelab.co.kr/centos/","https://mirror.opensourcelab.co.kr/centos/","rsync://mirror.opensourcelab.co.kr/CentOS/"
"Asia","Taiwan","Chunghwa Telecom – Data Communications Business Group","http://www.idc.hinet.net/chtidc_eng/index.html","http://mirror01.idc.hinet.net/centos/","",""
"Asia","Taiwan","Computer Center, Shu-Te University","http://en.main.stu.edu.tw/","http://ftp.stu.edu.tw/Linux/CentOS/","",""
"Asia","Taiwan","HostingInside LTD ","https://www.hostinginside.com/","http://centos.mirror.hostinginside.com/","https://centos.mirror.hostinginside.com/","rsync://centos.mirror.hostinginside.com/CentOS/"
"Asia","Taiwan","Kun Shan University","http://www.ksu.edu.tw/","http://ftp.ksu.edu.tw/pub/CentOS/","",""
"Asia","Taiwan","National Center for High-Perf Computing","http://www.nchc.org.tw/en/","http://ftp.twaren.net/Linux/CentOS/","",""
"Asia","Taiwan","NCHC","https://www.nchc.org.tw/","http://free.nchc.org.tw/centos/","https://free.nchc.org.tw/centos/","rsync://free.nchc.org.tw/centos/"
"Asia","Taiwan","NCTU CSCC","https://www.cs.nctu.edu.tw/","http://centos.cs.nctu.edu.tw/","","rsync://centos.cs.nctu.edu.tw/CentOS/"
"Asia","Taiwan","TaiChung City Education Network Center","http://www.tc.edu.tw/","http://ftp.tc.edu.tw/Linux/CentOS/","",""
"Asia","Thailand","Bangmod.Cloud","https://bangmod.cloud/","http://mirrors.bangmod.cloud/centos/","https://mirrors.bangmod.cloud/centos/",""
"Asia","Thailand","Hosting.in.th","http://www.hosting.in.th/","http://mirrors.hosting.in.th/centos/","",""
"Asia","Thailand","Khon Kaen University","https://www.kku.ac.th/","http://mirror.kku.ac.th/centos/","https://mirror.kku.ac.th/centos/","rsync://mirror.kku.ac.th/centos/"
"Asia","Thailand","NIPA.CLOUD","https://www.nipa.cloud/","http://mirrors.nipa.cloud/centos/","https://mirrors.nipa.cloud/centos/","rsync://mirrors.nipa.cloud/centos/"
"Asia","Thailand","Prince of Songkla University, Hatyai cam","http://www.psu.ac.th/en/","http://mirrors.psu.ac.th/pub/centos/","","rsync://mirrors.psu.ac.th/centos/"
"Asia","Thailand","THZ Hosting","http://www.thzhost.com/","http://mirrors.thzhost.com/centos/","https://mirrors.thzhost.com/centos/","rsync://mirrors.thzhost.com/centos/"
"Asia","Thailand","TOT Public Company Limited","http://www.tot.co.th/","http://mirror2.totbb.net/centos/","","rsync://mirror2.totbb.net/centos/"
"Asia","Uzbekistan","Comnet ISP","http://comnet.uz/","http://mirror.comnet.uz/centos/","","rsync://mirror.comnet.uz/centos/"
"Asia","Uzbekistan","Datacenter Uzinfocom","http://dc.uz/","http://mirror.dc.uz/centos/","","rsync://mirror.dc.uz/centos/"
"Asia","Vietnam"," Viettel IDC","http://viettelidc.com.vn/","http://centos-hcm.viettelidc.com.vn/","",""
"Asia","Vietnam","BKNS.VN","https://www.bkns.vn/","http://mirrors.bkns.vn/centos/","https://mirrors.bkns.vn/centos/","rsync://mirrors.bkns.vn/centos/"
"Asia","Vietnam","HORIZON","https://horizon.vn/","http://mirror.horizon.vn/centos/","",""
"Asia","Vietnam","Nhan Hoa","https://nhanhoa.com/","http://mirrors.nhanhoa.com/centos/","",""
"Asia","Vietnam","TinoHost","http://tinohost.com/","http://mirror.tino.org/centos/","",""
"Asia","Vietnam","VHost","http://vhost.vn/","http://mirrors.vhost.vn/centos/","",""
"Asia","Vietnam","VietHosting.vn","http://www.viethosting.com","http://mirrors.viethosting.com/centos/","","rsync://mirrors.viethosting.com/centos/"
"Canada","BC","eSecureData Inc.","http://www.esecuredata.com/","http://mirror.esecuredata.com/centos/","",""
"Canada","BC","FullHost","https://www.fullhost.com/","http://centos.ca-west.mirror.fullhost.io/centos/","",""
"Canada","BC","Simon Fraser University","http://www.fas.sfu.ca/","http://mirror.its.sfu.ca/mirror/CentOS/","https://mirror.its.sfu.ca/mirror/CentOS/",""
"Canada","BC","The University of British Columbia","http://ubc.ca/","http://mirror.it.ubc.ca/centos/","",""
"Canada","MB","LES.NET","http://les.net/","http://centos.les.net/","",""
"Canada","MB","Manitoba Unix User Group","http://www.muug.mb.ca/","http://muug.ca/mirror/centos/","https://muug.ca/mirror/centos/","rsync://muug.ca/centos/"
"Canada","MB","Westman Communications Grp","http://www.westmancom.com/","http://centos.westmancom.com/","",""
"Canada","NS","Dalhousie University","http://www.dal.ca/","http://mirror.its.dal.ca/centos/","","rsync://mirror.its.dal.ca/centos/"
"Canada","ON","Clearcable Networks","http://www.clearcable.ca/","http://centos.mirror.rafal.ca/","","rsync://centos.mirror.rafal.ca/CentOS/"
"Canada","ON","Cogeco Connexion","https://cogeco.com/","http://less.cogeco.net/CentOS/","",""
"Canada","ON","Netflash Internet Solutions","https://netflash.net/","http://mirror.netflash.net/centos/","https://mirror.netflash.net/centos/","rsync://mirror.netflash.net/centos/"
"Canada","ON","U. of Waterloo Computer Science Club","http://csclub.uwaterloo.ca/","http://mirror.csclub.uwaterloo.ca/centos/","https://mirror.csclub.uwaterloo.ca/centos/","rsync://mirror.csclub.uwaterloo.ca/centos/"
"Canada","ON","Wightman Telecom","http://wightman.ca/","http://mirror.netaddicted.ca/CentOS/","",""
"Canada","QC"," GloboTech Communications","http://www.globo.tech/","http://centos.mirror.globo.tech/","","rsync://centos.mirror.globo.tech/centos/"
"Canada","QC","Calgah Computer Systems Ltd.","http://www.calgah.com/","http://mirror.calgah.com/centos/","","rsync://mirror.calgah.com/centos/"
"Canada","QC","Colo-Serv Communications","https://colo-serv.net/","http://centos.mirror.colo-serv.net/","",""
"Canada","QC","Digital Shape Technologies Inc.","https://www.dst.ca/","http://mirror.dst.ca/centos/","https://mirror.dst.ca/centos/","rsync://mirror.dst.ca/centos/"
"Canada","QC","iWeb Technologies Inc.","http://iweb.com/","http://centos.mirror.iweb.ca/","","rsync://centos.mirror.iweb.ca/centos/"
"Canada","QC","Netelligent","http://www.netelligent.ca/centos/","http://centos.mirror.netelligent.ca/centos/","",""
"Canada","QC","PlanetHoster Canada","http://www.planethoster.net/","http://centos.mirror.ca.planethoster.net/","",""
"Canada","QC","VEXXHOST","http://www.vexxhost.com/","http://centos.mirror.vexxhost.com/","",""
"EU","Armenia","ARMINCO Global Telecommunications","http://www.arminco.com/","http://centos.mirrors.arminco.com/","",""
"EU","Austria","ANEXIA Internetdienstleistungs GmbH ","https://anexia.com/","http://centos.anexia.at/centos/","https://centos.anexia.at/centos/","rsync://centos.anexia.at/centos/"
"EU","Austria","digitalnova it&web solutions e.U.","http://digitalnova.at/","http://mirror.digitalnova.at/CentOS/","",""
"EU","Austria","Easyname","http://www.easyname.at/de","http://mirror.easyname.at/centos/","","rsync://mirror.easyname.at/centos/"
"EU","Austria","next layer GmbH","http://www.nextlayer.at/","http://mirror.nextlayer.at/centos/","",""
"EU","Austria","Technische Universität Graz","http://portal.tugraz.at/portal/page/portal/TU_Graz","http://ftp.tugraz.at/mirror/centos/","https://ftp.tugraz.at/mirror/centos/",""
"EU","Austria","UPC Austria","http://www.upc.at/","http://mirror.inode.at/data/centos/","","rsync://mirror.inode.at/mirror/centos/"
"EU","Azerbaijan","YER Hosting","https://yer.az/","http://mirror.yer.az/CentOS/","https://mirror.yer.az/CentOS/",""
"EU","Belarus","RUE Beltelecom","https://beltelecom.by/","http://mirror.datacenter.by/pub/CentOS/","https://mirror.datacenter.by/pub/CentOS/","rsync://mirror.datacenter.by/CentOS/"
"EU","Belarus","RUE Beltelecom, ByFly ISP.","http://byfly.by/","http://ftp.byfly.by/pub/CentOS/","","rsync://ftp.byfly.by/CentOS/"
"EU","Belgium","Belnet","http://www.belnet.be/en/","http://ftp.belnet.be/mirror/ftp.centos.org/","","rsync://rsync.belnet.be/centos/"
"EU","Belgium","Cu.be Solutions","http://cu.be/","http://centos.cu.be/","",""
"EU","Belgium","Kinamo NV/SA","http://www.kinamo.be/","http://mirror.kinamo.be/centos/","",""
"EU","Belgium","Nucleus","http://www.nucleus.be/","http://centos.mirror.nucleus.be/","",""
"EU","Bosnia & Herzegovina","Mirror.ba","http://mirror.ba/","http://centos.mirror.ba/","","rsync://mirror.ba/centos/"
"EU","Bulgaria","Daticum","https://www.daticum.com/","http://mirrors.daticum.com/centos/","https://mirrors.daticum.com/centos/","rsync://mirrors.daticum.com/CentOS/"
"EU","Bulgaria","Host.AG","https://www.host.ag/","http://mirror.host.ag/centos/","","rsync://mirror.host.ag/centos/"
"EU","Bulgaria","Neterra LTD","http://www.neterra.net/","http://mirrors.neterra.net/centos/","https://mirrors.neterra.net/centos/","rsync://mirrors.neterra.net/centos/"
"EU","Bulgaria","Netix","http://netix.net/","http://mirrors.netix.net/centos/","","rsync://mirrors.netix.net/centos/"
"EU","Bulgaria","Sofia University St. Kliment Ohridski","http://uni-sofia.bg/","http://centos.uni-sofia.bg/centos/","","rsync://centos.uni-sofia.bg/centos/"
"EU","Bulgaria","Telecoms Ltd.","http://www.telecoms.bg/","http://centos.telecoms.bg/","",""
"EU","Bulgaria","University of Ruse","http://www.uni-ruse.bg/","http://mirrors.uni-ruse.bg/centos/","https://mirrors.uni-ruse.bg/centos/",""
"EU","Bulgaria","Worldwide Fx / Nu Boyana Film Studios","http://wwfx.net/","http://mirror.wwfx.net/","",""
"EU","Croatia","Plus Hosting","http://www.plus.hr/","http://mirror.centos.plus.hr/centos/","","rsync://mirror.centos.plus.hr/centos/"
"EU","Croatia","University of Rijeka Department of Informatics","https://www.inf.uniri.hr/","http://mirrors.uniri.hr/centos/","https://mirrors.uniri.hr/centos/",""
"EU","Cyprus","Dept. of Computer Science, University of Cyprus","http://www.cs.ucy.ac.cy/","http://mirror.cs.ucy.ac.cy/centos/","",""
"EU","Czech Republic","Brno University of Technology","http://www.fit.vutbr.cz/","http://merlin.fit.vutbr.cz/mirrors/centos/","","rsync://merlin.fit.vutbr.cz/CentOS-incdvd/"
"EU","Czech Republic","Czech Technical University","http://www.cvut.cz","http://ftp.cvut.cz/centos/","",""
"EU","Czech Republic","Faculty of Informatics, Masaryk Univ.","http://www.fi.muni.cz/","http://ftp.fi.muni.cz/pub/linux/centos/","","rsync://ftp.fi.muni.cz/pub/linux/centos/"
"EU","Czech Republic","Hosting90 systems s.r.o.","http://www.hosting90.cz/","http://mirror.hosting90.cz/centos/","",""
"EU","Czech Republic","IT4Innovations National Supercomputing Center","http://www.it4i.cz/","http://mirror.it4i.cz/centos/","","rsync://mirror.it4i.cz/centos/"
"EU","Czech Republic","Silesian university in Opava","http://www.slu.cz/","http://mirror.slu.cz/centos/","https://mirror.slu.cz/centos/","rsync://mirror.slu.cz/centos/"
"EU","Czech Republic","UPC Czech Republic","https://www.upc.cz/","http://mirror.karneval.cz/pub/centos/","https://mirror.karneval.cz/pub/centos/",""
"EU","Denmark","dotsrc.org","http://dotsrc.org/","http://mirrors.dotsrc.org/centos/","https://mirrors.dotsrc.org/centos/","rsync://mirrors.dotsrc.org/centos/"
"EU","Denmark","KLID","http://klid.dk/","http://ftp.klid.dk/ftp/centos/","",""
"EU","Denmark","Netsite A/S","https://www.netsite.dk/","http://mirror.netsite.dk/centos/","https://mirror.netsite.dk/centos/",""
"EU","Denmark","One.com","http://www.one.com/","http://mirror.one.com/centos/","https://mirror.one.com/centos/","rsync://mirror.one.com/centos/"
"EU","Denmark","Physics Dept, Technical Univ of Denmark","http://www.fys.dtu.dk/","http://mirror.fysik.dtu.dk/linux/centos/","",""
"EU","Finland","CSC / Funet","http://www.nic.funet.fi/","http://ftp.funet.fi/pub/mirrors/centos.org/","","rsync://rsync.nic.funet.fi/ftp/pub/mirrors/centos.org/"
"EU","Finland","Finnish Administrators Reunited","http://far.fi/","http://centos.mirror.far.fi/","",""
"EU","Finland","Hosthink","https://www.hosthink.net","http://mirror.hosthink.net/centos/","",""
"EU","Finland","Koli-Loks","https://www.koliloks.eu/","http://mirror.gnu.fi/centos/","",""
"EU","France"," Institut Pasteur","http://www.pasteur.fr/","http://ftp.pasteur.fr/mirrors/CentOS/","","rsync://ftp.pasteur.fr/mirrors/CentOS/"
"EU","France","Atos Worldline","http://www.atos.net/","http://mirrors.atosworldline.com/public/centos/","",""
"EU","France","Avenir Telematique SAS","http://www.ate.info","http://centos.mirror.ate.info/","https://centos.mirror.ate.info/","rsync://centos.mirror.ate.info/centos/"
"EU","France","Centre de Calcul de l'IN2P3","http://cc.in2p3.fr/","http://mirror.in2p3.fr/linux/CentOS/","","rsync://mirror.in2p3.fr/ftp/linux/CentOS/"
"EU","France","Distrib Coffee","http://distrib-coffee.ipsl.jussieu.fr/","http://distrib-coffee.ipsl.jussieu.fr/pub/linux/centos/","","rsync://distrib-coffee.ipsl.jussieu.fr/pub/linux/centos/"
"EU","France","ftp.free.fr","","http://centos.mirrors.proxad.net/","",""
"EU","France","ircam","http://mirrors.ircam.fr/pub/CentOS/","http://mirrors.ircam.fr/pub/CentOS/","https://mirrors.ircam.fr/pub/CentOS/","rsync://mirrors.ircam.fr/CentOS/"
"EU","France","Lorraine University","http://www.univ-lorraine.fr/","http://miroir.univ-lorraine.fr/centos/","https://miroir.univ-lorraine.fr/centos/","rsync://miroir.univ-lorraine.fr/centos/"
"EU","France","PlanetHoster France","http://www.planethoster.net/","http://centos.mirror.fr.planethoster.net/","",""
"EU","France","PlusServer GmbH","https://www.plusserver.com/","http://mirror.plusserver.com/centos/","https://mirror.plusserver.com/centos/",""
"EU","France","RelouFR and Hivane networks","http://www.reloumirrors.net/","http://centos.crazyfrogs.org/","","rsync://centos.crazyfrogs.org/centos/"
"EU","France","Rezopole","http://www.rezopole.net/","http://ftp.rezopole.net/centos/","","rsync://ftp.rezopole.net/centos/"
"EU","France","Rpmfind","http://rpmfind.net/","http://fr2.rpmfind.net/linux/centos/","https://fr2.rpmfind.net/linux/centos/","rsync://fr2.rpmfind.net/linux/centos/"
"EU","France","Standalone Installer Software","http://standaloneinstaller.com/","http://mirrors.standaloneinstaller.com/centos/","","rsync://mirrors.standaloneinstaller.com/centos/"
"EU","France","Syntis","http://www.syntis.net/","http://mir01.syntis.net/CentOS/","https://mir01.syntis.net/CentOS/","rsync://mir01.syntis.net/CentOS/"
"EU","France","Université Paris 13","http://www.univ-paris13.fr/","http://miroir.univ-paris13.fr/centos/","",""
"EU","France","Wandrebeck (Private Mirror)","","http://centos.quelquesmots.fr/","",""
"EU","France","WPTheme","http://wptheme.fr/","http://mirroir.wptheme.fr/centos/","https://mirroir.wptheme.fr/centos/",""
"EU","Georgia","Caucasus Online LLC","http://co.ge/","http://centos.mirror.co.ge/","https://centos.mirror.co.ge/",""
"EU","Georgia","Cloud9","https://cloud9.ge/","http://ge.mirror.cloud9.ge/centos/","https://ge.mirror.cloud9.ge/centos/","rsync://ge.mirror.cloud9.ge/centos/"
"EU","Georgia","GRENA","https://www.grena.ge/","http://centos.grena.ge/","https://centos.grena.ge/",""
"EU","Georgia","Magticom ltd","https://www.magticom.ge/","http://centos.srv.magticom.ge/","https://centos.srv.magticom.ge/",""
"EU","Georgia","Worldbus","http://ge.mirror.worldbus.ge/centos/","http://ge.mirror.worldbus.ge/centos/","",""
"EU","Germany","   Leaseweb","https://www.leaseweb.com/","http://mirror.fra10.de.leaseweb.net/centos/","https://mirror.fra10.de.leaseweb.net/centos/","rsync://mirror.fra10.de.leaseweb.net/centos/"
"EU","Germany","1&1 Internet AG","http://www.1and1.com/","http://mirror.eu.oneandone.net/linux/distributions/centos/","","rsync://mirror.eu.oneandone.net/centos/"
"EU","Germany","23media","http://www.23media.com/","http://mirror.23media.com/centos/","https://mirror.23media.com/centos/","rsync://mirror.23media.com/centos/"
"EU","Germany","alpha-labs.net","https://alpha-labs.net/","http://mirror.alpha-labs.net/centos/","https://mirror.alpha-labs.net/centos/","rsync://mirror.alpha-labs.net/centos/"
"EU","Germany","Alpix","https://alpix.eu/","http://mirror.alpix.eu/centos/","https://mirror.alpix.eu/centos/","rsync://mirror.alpix.eu/centos/"
"EU","Germany","Arbeitsgemeinschaft Dresdner Studentennetz","https://agdsn.de/","http://ftp.agdsn.de/pub/mirrors/centos/","https://ftp.agdsn.de/pub/mirrors/centos/",""
"EU","Germany","Artfiles New Media GmbH","http://www.artfiles.de/","http://artfiles.org/centos.org/","",""
"EU","Germany","Checkdomain GmbH","http://www.checkdomain.de/","http://mirror.checkdomain.de/centos/","https://mirror.checkdomain.de/centos/",""
"EU","Germany","cuegee it gmbh","https://cuegee.com/","http://mirror.cuegee.com/centos/","https://mirror.cuegee.com/centos/","rsync://mirror.cuegee.com/centos/"
"EU","Germany","Dark Penguin Network","http://darkpenguin.net/","http://linux.darkpenguin.net/distros/CentOS/","",""
"EU","Germany","Friedrich-Alexander-Universität Erlangen-Nürnberg","http://www.fau.de/","http://ftp.fau.de/centos/","https://ftp.fau.de/centos/","rsync://ftp.fau.de/centos/"
"EU","Germany","Goethe University Frankfurt, Computing Center","http://www.rz.uni-frankfurt.de/","http://ftp.rz.uni-frankfurt.de/pub/mirrors/centos/","","rsync://ftp.rz.uni-frankfurt.de/centos/"
"EU","Germany","Host Europe","http://www.hosteurope.de/","http://ftp.hosteurope.de/mirror/centos.org/","","rsync://ftp.hosteurope.de/centos/"
"EU","Germany","IMT-Systems GmbH","http://www.imt-systems.com/","http://mirror.imt-systems.com/centos/","https://mirror.imt-systems.com/centos/","rsync://mirror.imt-systems.com/centos/"
"EU","Germany","INFOnline GmbH","https://www.infonline.de/","http://mirror.infonline.de/centos/","https://mirror.infonline.de/centos/","rsync://mirror.infonline.de/centos/"
"EU","Germany","Intergenia","http://www.server4you.de/","http://centos.intergenia.de/","","rsync://centos.intergenia.de/centos-linux/"
"EU","Germany","IPHH Internet Port Hamburg GmbH","https://www.iphh.net/","http://centos.mirror.iphh.net/CentOS/","",""
"EU","Germany","Leibniz Universität IT Services","http://www.rrzn.uni-hannover.de/","http://ftp.rrzn.uni-hannover.de/centos/","",""
"EU","Germany","LMU Muenchen, Dpt. Biologie 2, IT-Gruppe","http://zi.bio.lmu.de/","http://centos.bio.lmu.de/","","rsync://centos.bio.lmu.de/CentOS/"
"EU","Germany","net-and-phone GmbH","https://i-pbx.de/","http://ftp.antilo.de/pub/linux/centos/","",""
"EU","Germany","Net-D-Sign GmbH","http://www.net-d-sign.de/","http://centos.mirror.net-d-sign.de/","",""
"EU","Germany","NetCologne","http://netcologne.de","http://mirror.netcologne.de/centos/","","rsync://mirror.netcologne.de/centos/"
"EU","Germany","netcup GmbH","http://www.netcup.de/","http://centosmirror.netcup.net/centos/","",""
"EU","Germany","Netzwerge GmbH","http://www.netzwerge.de/","http://mirror.netzwerge.de/centos/","https://mirror.netzwerge.de/centos/",""
"EU","Germany","Plus.line AG","https://www.plusline.net/","http://ftp.plusline.net/centos/","https://ftp.plusline.net/centos/","rsync://ftp.plusline.net/CentOS/"
"EU","Germany","PLUSTECH GmbH ","https://plustech.de/","http://mirror.plustech.de/centos/","https://mirror.plustech.de/centos/",""
"EU","Germany","PSW Group","http://www.psw.net/","http://centos.mirrors.psw.services/centos/","",""
"EU","Germany","ratiokontakt GmbH","http://www.ratiokontakt.de/","http://mirror.ratiokontakt.de/mirror/centos/","",""
"EU","Germany","RWTH Aachen University","http://www.rwth-aachen.de","http://ftp.halifax.rwth-aachen.de/centos/","https://ftp.halifax.rwth-aachen.de/centos/","rsync://ftp.halifax.rwth-aachen.de/centos/"
"EU","Germany","ScaleUp Technologies GmbH & Co. KG","https://www.scaleuptech.com/","http://mirror.scaleuptech.com/centos/","https://mirror.scaleuptech.com/centos/","rsync://mirror.scaleuptech.com/centos/"
"EU","Germany","Schlund Technologies GmbH","http://www.schlundtech.de/","http://centos.schlundtech.de/","","rsync://centos.schlundtech.de/centos/"
"EU","Germany","Softaculous ltd.","http://www.softaculous.com/","http://mirror.softaculous.com/centos/","",""
"EU","Germany","TU Chemnitz","http://www.tu-chemnitz.de/","http://ftp.tu-chemnitz.de/pub/linux/centos/","","rsync://rsync.hrz.tu-chemnitz.de/ftp/pub/linux/centos/"
"EU","Germany","University of Applied Sciences Esslingen 2","http://www.hs-esslingen.de/","http://mirror1.hs-esslingen.de/pub/Mirrors/centos/","https://mirror1.hs-esslingen.de/pub/Mirrors/centos/","rsync://mirror1.hs-esslingen.de/centos/"
"EU","Germany","University of Bayreuth","http://www.uni-bayreuth.de/","http://ftp.uni-bayreuth.de/linux/CentOS/","","rsync://rsync.uni-bayreuth.de/CentOS/"
"EU","Germany","WRZ - Weseler Rechenzentrum","http://www.wrz.de/","http://ftp.wrz.de/pub/CentOS/","https://ftp.wrz.de/pub/CentOS/","rsync://ftp.wrz.de/pub/CentOS/"
"EU","Greece","Computer Center, University of Crete","http://www.cc.uoc.gr/","http://ftp.cc.uoc.gr/mirrors/linux/centos/","https://ftp.cc.uoc.gr/mirrors/linux/centos/","rsync://ftp.cc.uoc.gr/centos/"
"EU","Greece","NTUA","http://www.ntua.gr/","http://ftp.ntua.gr/pub/linux/centos/","","rsync://ftp.ntua.gr/centos/"
"EU","Hungary","BME","http://www.bme.hu/","http://ftp.bme.hu/centos/","",""
"EU","Hungary","Governmental Information-Technology Development Agency","https://kifu.gov.hu/","http://mirror.niif.hu/centos/","https://mirror.niif.hu/centos/",""
"EU","Hungary","Hungarian Meteorological Service","http://www.met.hu/","http://mirror.met.hu/centos/","",""
"EU","Hungary","Lonyai (private mirror)","","http://centos.lonyai.com/centos/","",""
"EU","Hungary","Quantum Mirror","https://quantum-mirror.hu/","http://quantum-mirror.hu/mirrors/pub/centos/","https://quantum-mirror.hu/mirrors/pub/centos/","rsync://quantum-mirror.hu/centos/"
"EU","Iceland","Advania","http://www.advania.com/","http://centos.hysing.is/","https://centos.hysing.is/",""
"EU","Iceland","Nýherji","http://www.nyherji.is/","http://centos.nyherji.is/","",""
"EU","Iceland","Siminn","http://www.simnet.is/","http://www.fedora.is/CentOS/","https://www.fedora.is/CentOS/",""
"EU","Ireland","HEAnet","http://www.heanet.ie/about/index.html","http://ftp.heanet.ie/pub/centos/","","rsync://ftp.heanet.ie/pub/centos/"
"EU","Italy"," GARR","http://www.garr.it/","http://centos.mirror.garr.it/centos/","",""
"EU","Italy","Prometeus","http://www.prometeus.net/","http://mirrors.prometeus.net/centos/","https://mirrors.prometeus.net/centos/",""
"EU","Latvia","koyanet.lv","","http://centos.koyanet.lv/centos/","https://centos.koyanet.lv/centos/",""
"EU","Latvia","Linux Center, University of Latvia","http://linux.edu.lv/index.php","http://centos.linux.edu.lv/","",""
"EU","Lithuania","Cherry Servers","https://www.cherryservers.com/","http://mirror.cherryservers.com/centos/","",""
"EU","Lithuania","Interneto vizija","http://www.serveriai.lt/","http://centos.mirror.serveriai.lt/","",""
"EU","Lithuania","UAB Esnet","http://www.vpsnet.com/","http://mirror.vpsnet.com/centos/","https://mirror.vpsnet.com/centos/",""
"EU","Luxembourg","Datacenter Luxembourg","https://www.datacenter.eu/","http://mirror.dclux.com/centos/","",""
"EU","Luxembourg","root S.A","http://www.root.lu/","http://centos.mirror.root.lu/","",""
"EU","Moldova","FedoraMD.org","http://www.fedora.md/","http://repo.fedora.md/centos/","https://repo.fedora.md/centos/",""
"EU","Moldova","MivoCloud","https://www.mivocloud.com/","http://mirrors.mivocloud.com/centos/","","rsync://mirrors.mivocloud.com/centos/"
"EU","Moldova","Trabia-Network","http://www.trabia.net/","http://mirror.as43289.net/centos/","","rsync://mirror.as43289.net/centos/"
"EU","Netherlands","  packet.net","https://packet.net/","http://ams.edge.kernel.org/centos/","https://ams.edge.kernel.org/centos/",""
"EU","Netherlands","  xTom","https://xtom.com/","http://mirrors.xtom.nl/centos/","",""
"EU","Netherlands"," Leaseweb","https://www.leaseweb.com/","http://mirror.ams1.nl.leaseweb.net/centos/","https://mirror.ams1.nl.leaseweb.net/centos/","rsync://mirror.ams1.nl.leaseweb.net/centos/"
"EU","Netherlands"," WD6.net","https://www.wd6.net/","http://mirror.wd6.net/centos/","https://mirror.wd6.net/centos/","rsync://mirror.wd6.net/centos/"
"EU","Netherlands","1000mbps.com","http://www.1000mbps.com/","http://mirror.1000mbps.com/centos/","",""
"EU","Netherlands","Amsio","http://www.amsio.com/","http://mirror.amsiohosting.net/centos.org/","","rsync://mirror.amsiohosting.net/CentOS/"
"EU","Netherlands","CJ2 Hosting & Development","http://www.cj2.nl/","http://mirror.cj2.nl/centos/","",""
"EU","Netherlands","Dataone Datacenters","http://www.dataone.nl/","http://mirror.dataone.nl/centos/","","rsync://mirror.dataone.nl/centos/"
"EU","Netherlands","DataPacket","https://datapacket.com/","http://mirror.nl.datapacket.com/centos/","",""
"EU","Netherlands","Delft University of Technology","http://www.tudelft.nl/","http://ftp.tudelft.nl/centos.org/","",""
"EU","Netherlands","Hostnet bv","https://www.hostnet.nl/","http://mirror.hostnet.nl/centos/","https://mirror.hostnet.nl/centos/",""
"EU","Netherlands","IPserv.nl","http://www.ipserv.nl/","http://mirror.ipserv.nl/centos/","",""
"EU","Netherlands","LiteServer","https://www.liteserver.nl/","http://centos.mirror.liteserver.nl/","https://centos.mirror.liteserver.nl/","rsync://centos.mirror.liteserver.nl/centos/"
"EU","Netherlands","mijn.host","https://mijn.host/","http://mirror.mijn.host/centos/","https://mirror.mijn.host/centos/",""
"EU","Netherlands","Netrouting","http://www.netrouting.com/","http://mirror.netrouting.net/centos/","",""
"EU","Netherlands","NFOrce Entertainment B.V.","http://www.nforce.com/","http://mirror.nforce.com/pub/linux/CentOS/","https://mirror.nforce.com/pub/linux/CentOS/",""
"EU","Netherlands","NLUUG","http://www.nluug.nl/","http://ftp.nluug.nl/ftp/pub/os/Linux/distr/CentOS/","","rsync://ftp.nluug.nl/centoslinux/"
"EU","Netherlands","Oxilion","http://www.oxilion.nl","http://mirror.oxilion.nl/centos/","https://mirror.oxilion.nl/centos/","rsync://mirror.oxilion.nl/centos/"
"EU","Netherlands","Previder BV","http://www.previder.nl/","http://mirror.previder.nl/centos/","",""
"EU","Netherlands","Prolocation B.V.","http://www.prolocation.net/","http://mirror.prolocation.net/centos/","",""
"EU","Netherlands","Proserve","http://www.proserve.nl/","http://mirror.proserve.nl/centos/","",""
"EU","Netherlands","Quentin Schoemaker","http://www.schoemaker.systems/","http://mirror.schoemaker.systems/centos/","","rsync://mirror.schoemaker.systems/centos/"
"EU","Netherlands","Serverion","https://www.serverion.com/","http://mirror.serverion.com/centos/","https://mirror.serverion.com/centos/","rsync://mirror.serverion.com/centos/"
"EU","Netherlands","Serverius","https://serverius.net/","http://mirror.serverius.net/centos/","","rsync://mirror.serverius.net/centos/"
"EU","Netherlands","SIT Internetdiensten","http://www.sitbv.nl/","http://mirror.sitbv.nl/centos/","","rsync://mirror.sitbv.nl/centos/"
"EU","Netherlands","Supportex","http://supportex.net/","http://mirrors.supportex.net/centos/","",""
"EU","Netherlands","TransIP BV","http://www.transip.nl/","http://centos.mirror.transip.nl/","","rsync://centos.mirror.transip.nl/centos/"
"EU","Netherlands","Triple IT","http://www.triple-it.nl/","http://centos.mirror.triple-it.nl/","",""
"EU","Netherlands","University of Utrecht","http://www.cs.uu.nl/","http://linux.cs.uu.nl/centos/","","rsync://rsync.cs.uu.nl/CentOS/"
"EU","Netherlands","Usenet.Farm","https://usenet.farm/","http://mirror.usenet.farm/centos/","https://mirror.usenet.farm/centos/","rsync://mirror.usenet.farm/centos/"
"EU","Netherlands","Vimexx","https://www.vimexx.nl/","http://mirror.vimexx.nl/centos/","",""
"EU","Netherlands","Weppel","http://www.weppel.nl","http://mirror.ehv.weppel.nl/centos/","https://mirror.ehv.weppel.nl/centos/","rsync://mirror.ehv.weppel.nl/centos/"
"EU","Netherlands","WideXS","http://www.widexs.nl","http://mirror.widexs.nl/ftp/pub/os/Linux/distr/centos/","",""
"EU","North Macedonia","Macedonian Telecom","http://www.t-home.mk/","http://mirror.t-home.mk/centos/","","rsync://mirror.t-home.mk/centos/"
"EU","North Macedonia","one.Vip","https://www.vip.mk/","http://mirror.onevip.mk/centos/","","rsync://mirror.onevip.mk/centos/"
"EU","Poland"," Horyzont Technologie Internetowe Sp. z o.o.","http://www.horyzont.net/","http://centos2.hti.pl/","",""
"EU","Poland","Academic Center of Computer Science","http://aci.com.pl/","http://ftp.man.szczecin.pl/pub/Linux/centos/","",""
"EU","Poland","AGH University of Science and Technology","http://www.agh.edu.pl/","http://ftp.agh.edu.pl/centos/","",""
"EU","Poland","Horyzont Technologie Internetowe Sp. z o.o.","http://www.horyzont.net/","http://centos1.hti.pl/","",""
"EU","Poland","ICM Warsaw","http://www.icm.edu.pl/","http://ftp.icm.edu.pl/pub/Linux/distributions/centos/","https://ftp.icm.edu.pl/pub/Linux/distributions/centos/","rsync://ftp.icm.edu.pl/pub/Linux/distributions/centos/"
"EU","Poland","Kielce Technology Park","http://www.technopark.kielce.pl/","http://mirror-pl.kielcetechnologypark.net/centos/","",""
"EU","Poland","LiveNet Sp. z o.o.","http://www.slaskdatacenter.pl/","http://centos.slaskdatacenter.com/","",""
"EU","Poland","Opole University of Technology","http://www.po.opole.pl/","http://centos.po.opole.pl/","",""
"EU","Poland","pbone.net","http://www.pbone.net/","http://ftp.pbone.net/pub/centos/","","rsync://ftp.pbone.net/centos/"
"EU","Poland","Poznan Supercomputing and Networking Center","http://www.psnc.pl/","http://ftp.man.poznan.pl/pub/centos/","",""
"EU","Poland","Szczecin University of Technology","http://www.ps.pl/","http://ftp.ps.pl/pub/Linux/CentOS/","https://ftp.ps.pl/pub/Linux/CentOS/",""
"EU","Poland","Vectra","http://www.vectra.pl/","http://ftp.vectranet.pl/centos/","","rsync://ftp.vectranet.pl/centos/"
"EU","Poland","Wroclaw Centre for Networking and Supercomputing","http://www.wcss.pl/en/","http://ftp.wcss.pl/pub/linux/centos/","","rsync://ftp.wcss.pl/ftp/linux/centos/"
"EU","Portugal","hashpower","https://hashpower.pt/","http://mirrors.pt/centos/","https://mirrors.pt/centos/","rsync://mirrors.pt/centos/"
"EU","Portugal","Instituto Superior de Engenharia de Coimbra","http://www.isec.pt/","http://mirror.isec.pt/CentOS/","",""
"EU","Portugal","ptisp","http://www.ptisp.pt/","http://centos.mirror.ptisp.pt/centos/","",""
"EU","Portugal","Univ. of Coimbra, Informatics Eng. Dept.","http://www.dei.uc.pt/","http://ftp.dei.uc.pt/pub/linux/CentOS/","",""
"EU","Portugal","University of Porto","http://www.up.pt/","http://mirrors.up.pt/pub/centos/","https://mirrors.up.pt/pub/centos/","rsync://mirrors.up.pt/pub/centos/"
"EU","Romania"," nxtHost","https://www.nxthost.com/","http://mirrors.nxthost.com/centos/","https://mirrors.nxthost.com/centos/","rsync://mirrors.nxthost.com/centos/"
"EU","Romania","CH-Center Hosting","http://www.ch-center.com/","http://mirrors.ch-center.com/centos/","",""
"EU","Romania","Chroot","https://www.chroot.ro/","http://mirrors.chroot.ro/centos/","https://mirrors.chroot.ro/centos/",""
"EU","Romania","efectRO","https://www.efect.ro/","http://mirror.efect.ro/centos/","https://mirror.efect.ro/centos/","rsync://mirror.efect.ro/centos/"
"EU","Romania","Hostico","https://hostico.ro/","http://mirrors.hostico.ro/centos/","https://mirrors.hostico.ro/centos/",""
"EU","Romania","Hosting Solutions","http://www.hostingsolutions.ro/","http://mirrors.hostingromania.ro/CentOS/","",""
"EU","Romania","LayerBridge SRL","https://www.layerbridge.com/","http://mirrors.layerbridge.com/centos/","https://mirrors.layerbridge.com/centos/","rsync://mirrors.layerbridge.com/CentOS/"
"EU","Romania","M247 Europe","http://www.m247.ro/","http://mirrors.m247.ro/centos/","","rsync://mirrors.m247.ro/centos/"
"EU","Romania","NAV Communications","https://www.nav.ro/","http://mirrors.nav.ro/centos/","https://mirrors.nav.ro/centos/","rsync://mirrors.nav.ro/centos/"
"EU","Romania","Pidgin Host","http://www.pidginhost.com/","http://mirrors.pidginhost.com/centos/","https://mirrors.pidginhost.com/centos/","rsync://mirrors.pidginhost.com/CentOS/"
"EU","Romania","Prime Telecom","https://www.primetelecom.ro/","http://mirrors.primetelecom.ro/centos/","","rsync://mirrors.primetelecom.ro/centos/"
"EU","Romania","Universitatea Aurel Vlaicu","http://www.uav.ro/","http://mirrors.uav.ro/centos/","",""
"EU","Romania","UPC Romania","http://www.upc.ro/","http://ftp.upcnet.ro/distros/centos/","",""
"EU","Romania","Xservers.ro","http://www.xservers.ro/","http://mirrors.xservers.ro/centos/","",""
"EU","Russia","Awanti ISP","http://www.awanti.com/","http://mirror.awanti.com/centos/","",""
"EU","Russia","Corbina Telecom","http://www.corbina.net/","http://mirror.corbina.net/pub/Linux/centos/","",""
"EU","Russia","docker.ru","https://docker.ru/","http://mirror.docker.ru/centos/","https://mirror.docker.ru/centos/",""
"EU","Russia","filanco.ru","https://filanco.ru/","http://mirrors.datahouse.ru/centos/","https://mirrors.datahouse.ru/centos/",""
"EU","Russia","ia64-linux.org","http://ia64-linux.org/","http://mirror.linux-ia64.org/centos/","https://mirror.linux-ia64.org/centos/",""
"EU","Russia","ICT of SB RAS","http://www.ict.nsc.ru/","http://ftp.nsc.ru/pub/centos/","https://ftp.nsc.ru/pub/centos/","rsync://ftp.nsc.ru/centos/"
"EU","Russia","Logol Hosting Company","http://logol.ru/","http://mirror.logol.ru/centos/","","rsync://mirror.logol.ru/centos/"
"EU","Russia","POWERNET ISP","http://www.powernet.com.ru/","http://mirrors.powernet.com.ru/centos/","","rsync://mirrors.powernet.com.ru/pub/centos/"
"EU","Russia","RECONN LLC","https://reconn.ru/","http://mirror.reconn.ru/centos/","","rsync://mirror.reconn.ru/centos/"
"EU","Russia","RosBusinessConsulting","http://www.rbc.ru/","http://centos-mirror.rbc.ru/pub/centos/","",""
"EU","Russia","Truenetwork","https://truenetwork.ru/","http://mirror.truenetwork.ru/centos/","","rsync://mirror.truenetwork.ru/centos/"
"EU","Russia","Tver State University","","http://mirror.tversu.ru/centos/","",""
"EU","Russia","Yandex","http://www.yandex.ru/","http://mirror.yandex.ru/centos/","","rsync://mirror.yandex.ru/centos/"
"EU","Serbia","Petar Marić, Faculty of Technical Sciences, University of Novi Sad","http://www.ftn.uns.ac.rs/","http://centos.petarmaric.com/","",""
"EU","Serbia","School of Electrical Engineering's Computing Centre","http://www.etf.bg.ac.rs/en","http://mirror.etf.bg.ac.rs/centos/","","rsync://mirror.etf.bg.ac.rs/centos/"
"EU","Slovakia","Energotel a.s","http://www.energotel.sk/","http://ftp.energotel.sk/pub/linux/centos/","",""
"EU","Slovakia","Rainside","http://www.rainside.sk/","http://tux.rainside.sk/centos/","",""
"EU","Slovakia","University of P.J.Safarik","http://www.upjs.sk/","http://ftp.upjs.sk/pub/centos/","https://ftp.upjs.sk/pub/centos/",""
"EU","Slovenia","ARNES","http://www.arnes.si/","http://ftp.arnes.si/pub/mirrors/centos.org/","https://ftp.arnes.si/pub/mirrors/centos.org/",""
"EU","Slovenia","T-2 d.o.o.","http://www.t-2.net/","http://centos.t-2.net/","",""
"EU","Slovenia","xGroup","http://xgroup.si","http://mirrors.xgroup.si/CentOS/","",""
"EU","Spain","AireNetworks","http://www.airenetworks.es/","http://mirror.airenetworks.es/CentOS/","","rsync://mirror.airenetworks.es/CentOS/"
"EU","Spain","Centro Inform. Cientifico de Andalucia","http://www.cica.es/","http://ftp.cica.es/CentOS/","https://ftp.cica.es/CentOS/","rsync://rsync.cica.es/CentOS/"
"EU","Spain","CSUC","http://www.csuc.cat/","http://ftp.csuc.cat/centos/","",""
"EU","Spain","GRUPO TEDRA","https://www.tedra.es","http://mirror.tedra.es/CentOS/","",""
"EU","Spain","Hospedados.com & GadIX.com","http://www.gadix.com/","http://mirror.gadix.com/centos/","",""
"EU","Spain","IRTIC/Universidad de Valencia","http://irtic.uv.es/","http://mirror.uv.es/mirror/CentOS/","","rsync://mirror.uv.es/CentOS/"
"EU","Spain","LibreLabUCM","https://librelabucm.org/","http://mirror.librelabucm.org/CentOS/","https://mirror.librelabucm.org/CentOS/",""
"EU","Spain","Nixval Datacenter","http://www.nixval.com/","http://repo.nixval.com/CentOS/","","rsync://repo.nixval.com/CentOS/"
"EU","Spain","Oficina de Software Libre do CIXUG","http://www.cixug.es/osl/oficina/","http://ftp.cixug.es/CentOS/","",""
"EU","Spain","RedIRIS, Spanish Research and Education Network","https://www.rediris.es/","http://ftp.rediris.es/mirror/CentOS/","https://ftp.rediris.es/mirror/CentOS/","rsync://ftp.rediris.es/centos/"
"EU","Spain","Universidad de Malaga","http://www.uma.es/","http://ftp.uma.es/mirror/CentOS/","",""
"EU","Spain","Universidade de Vigo","http://www.uvigo.gal","http://centos.uvigo.es/","",""
"EU","Sweden","Ember AB","http://www.ember.se/","http://ftp.ember.se/centos/","",""
"EU","Sweden","GleSYS AB","https://glesys.se/","http://mirrors.glesys.net/CentOS/","","rsync://mirrors.glesys.net/CentOS/"
"EU","Sweden","Halmstad University","http://www.hh.se/","http://mirror.hh.se/centos/","",""
"EU","Sweden","HostUp","https://hostup.org/","http://mirror.hostup.org/centos/","https://mirror.hostup.org/centos/","rsync://mirror.hostup.org/centos/"
"EU","Sweden","Lysator","http://www.lysator.liu.se/english.html","http://ftp.lysator.liu.se/pub/CentOS/","https://ftp.lysator.liu.se/pub/CentOS/","rsync://ftp.lysator.liu.se/pub/CentOS/"
"EU","Sweden","National Supercomputer Centre, Linkoping University","https://www.nsc.liu.se/","http://mirror.nsc.liu.se/CentOS/","https://mirror.nsc.liu.se/CentOS/","rsync://mirror.nsc.liu.se/CentOS/"
"EU","Sweden","Zetup AB","http://www.zetup.se/","http://mirror.zetup.net/CentOS/","https://mirror.zetup.net/CentOS/",""
"EU","Switzerland","Adfinis SyGroup AG","https://adfinis-sygroup.ch/","http://pkg.adfinis-sygroup.ch/centos/","https://pkg.adfinis-sygroup.ch/centos/",""
"EU","Switzerland","CERN","http://cern.ch/","http://linuxsoft.cern.ch/centos/","https://linuxsoft.cern.ch/centos/","rsync://linuxsoft.cern.ch/centos/"
"EU","Switzerland","Init7 (Schweiz) AG","https://www.init7.net/","http://mirror.init7.net/centos/","https://mirror.init7.net/centos/",""
"EU","Turkey","  Guzel Hosting","https://www.guzel.net.tr/","http://kozyatagi.mirror.guzel.net.tr/centos/","https://kozyatagi.mirror.guzel.net.tr/centos/","rsync://kozyatagi.mirror.guzel.net.tr/centos/"
"EU","Turkey"," Guzel Hosting","https://www.guzel.net.tr/","http://denizli.centos-mirror.guzel.net.tr/","https://denizli.centos-mirror.guzel.net.tr/","rsync://denizli.centos-mirror.guzel.net.tr/centos/"
"EU","Turkey","Bogazici University","http://www.boun.edu.tr/","http://repo.boun.edu.tr/centos/","",""
"EU","Turkey","Bursabil Teknoloji A.S.","https://bursabil.com.tr/","http://mirror.bursabil.com.tr/centos/","https://mirror.bursabil.com.tr/centos/",""
"EU","Turkey","DH Bilisim Teknolojileri Ltd.","https://www.domainhizmetleri.com/","http://mirror.domainhizmetleri.com/centos/","https://mirror.domainhizmetleri.com/centos/",""
"EU","Turkey","Fibersunucu Internet Hizmetleri","http://www.fibersunucu.com.tr/","http://mirror.fibersunucu.com.tr/centos/","",""
"EU","Turkey","Guzel Hosting","https://www.guzel.net.tr/","http://istanbul.centos-mirror.guzel.net.tr/","https://istanbul.centos-mirror.guzel.net.tr/","rsync://istanbul.centos-mirror.guzel.net.tr/centos/"
"EU","Turkey","Hosting","https://www.hosting.com.tr/","http://mirror.hosting.com.tr/centos/","",""
"EU","Turkey","iDeal Hosting ","https://www.idealhosting.net.tr/","http://mirror.idealhosting.net.tr/centos/","https://mirror.idealhosting.net.tr/centos/","rsync://mirror.idealhosting.net.tr/centos/"
"EU","Turkey","Istanbul Technical University","http://www.itu.edu.tr/","http://ftp.itu.edu.tr/Mirror/CentOS/","https://ftp.itu.edu.tr/Mirror/CentOS/",""
"EU","Turkey","MUVHost - MUV Bilisim ve Telekomunikasyon Hiz. Ltd.","https://www.muvhost.com/","http://mirror.muvhost.com/centos/","",""
"EU","Turkey","Natro Hosting","https://www.natro.com/","http://mirror.natro.com/centos/","https://mirror.natro.com/centos/","rsync://mirror.natro.com/centos/"
"EU","Turkey","Netdirekt A.S.","https://netdirekt.com.tr/","http://mirror.netdirekt.com.tr/centos/","https://mirror.netdirekt.com.tr/centos/",""
"EU","Turkey","Netinternet","https://netinternet.com.tr/","http://mirror.ni.net.tr/centos/","",""
"EU","Turkey","NiobeWeb Hosting","https://www.niobeweb.net/","http://mirror.niobeweb.net/centos/","",""
"EU","Turkey","PlusWeb","http://www.plusweb.com.tr/","http://mirror.plusweb.com.tr/centos/","",""
"EU","Turkey","PremierDC","http://www.sh.com.tr","http://mirror.sh.com.tr/centos/","https://mirror.sh.com.tr/centos/",""
"EU","Turkey","Provider Data Center Services","https://provider.com.tr/","http://mirror.provider.com.tr/centos/","https://mirror.provider.com.tr/centos/",""
"EU","Turkey","Radore","http://radore.com/","http://mirror.radoreservers.com/centos/","",""
"EU","Turkey","Saglayici","http://www.saglayici.com/","http://mirror.saglayici.com/centos/","",""
"EU","Turkey","Turhost","https://www.turhost.com/","http://centos.turhost.com/","",""
"EU","Turkey","Turkish Linux User's Association","http://www.linux.org.tr/ ","http://ftp.linux.org.tr/centos/","","rsync://ftp.linux.org.tr/centos/"
"EU","Turkey","Vargonen","https://vargonen.com/","http://centos.vargonen.com/centos/","",""
"EU","Turkey","VeriTeknik I.T.","http://www.veriteknik.com/","http://mirror.rackdc.com/CentOS/","",""
"EU","Ukraine","BestHosting","http://besthosting.ua/","http://mirror.besthosting.ua/","","rsync://mirror.besthosting.ua/CentOS/"
"EU","Ukraine","BYTES.ua","https://bytes.ua/","http://mirrors.bytes.ua/centos/","",""
"EU","Ukraine","Mirohost","http://mirohost.net/","http://mirror.mirohost.net/centos/","",""
"EU","Ukraine","Omnilance Ltd","http://omnilance.com/","http://centos.mirror.omnilance.com/","",""
"EU","Ukraine","Vinnytsia IP-Connect","http://ip-connect.vn.ua/","http://centos.ip-connect.vn.ua/","https://centos.ip-connect.vn.ua/","rsync://centos.ip-connect.vn.ua/centos/"
"EU","United Kingdom"," NSEC","http://www.nsec.pt/","http://uk.mirror.nsec.pt/centos/","",""
"EU","United Kingdom","AS29550.net","http://mirror.as29550.net/","http://mirror.as29550.net/mirror.centos.org/","",""
"EU","United Kingdom","Bytemark","http://www.bytemark.co.uk/","http://mirror.bytemark.co.uk/centos/","https://mirror.bytemark.co.uk/centos/","rsync://mirror.bytemark.co.uk/centos/"
"EU","United Kingdom","Clouvider Limited","https://www.clouvider.co.uk/","http://mirrors.clouvider.net/CentOS/","",""
"EU","United Kingdom","Coreix","http://www.coreix.net/","http://mirrors.coreix.net/centos/","",""
"EU","United Kingdom","CWCS Managed Hosting","https://www.cwcs.co.uk/","http://mirror.cwcs.co.uk/centos/","",""
"EU","United Kingdom","Freethought Internet","https://www.freethought-internet.co.uk/","http://mirror.freethought-internet.co.uk/centos/","https://mirror.freethought-internet.co.uk/centos/","rsync://mirror.freethought-internet.co.uk/centos/"
"EU","United Kingdom","Goscomb Technologies Limited","http://www.goscomb.net/","http://mirror.sov.uk.goscomb.net/centos/","",""
"EU","United Kingdom","Imperial College London","http://www.imperial.ac.uk/","http://mozart.ee.ic.ac.uk/CentOS/","",""
"EU","United Kingdom","Melbourne Server Hosting","https://melbourne.co.uk/","http://mirrors.melbourne.co.uk/centos/","https://mirrors.melbourne.co.uk/centos/","rsync://mirrors.melbourne.co.uk/CentOS/"
"EU","United Kingdom","NetWeaver","https://www.netweaver.uk/","http://mirror.netweaver.uk/centos/","https://mirror.netweaver.uk/centos/",""
"EU","United Kingdom","Nublue Ltd","http://www.nublue.co.uk","http://centos.mirrors.nublue.co.uk/","",""
"EU","United Kingdom","Oxford University Computing Services","http://www.oucs.ox.ac.uk/","http://mirror.ox.ac.uk/sites/mirror.centos.org/","",""
"EU","United Kingdom","Pulsant Ltd.","http://www.pulsant.co.uk/","http://centos.mirroring.pulsant.co.uk/","",""
"EU","United Kingdom","UK Mirror Service - Univ. Kent","http://www.mirrorservice.org/","http://www.mirrorservice.org/sites/mirror.centos.org/","https://www.mirrorservice.org/sites/mirror.centos.org/","rsync://rsync.mirrorservice.org/mirror.centos.org/"
"EU","United Kingdom","UKFast","http://www.ukfast.co.uk/","http://mirrors.ukfast.co.uk/sites/ftp.centos.org/","https://mirrors.ukfast.co.uk/sites/ftp.centos.org/","rsync://mirrors.ukfast.co.uk/ftp.centos.org/"
"EU","United Kingdom","Vorboss Ltd","http://www.vorboss.com/","http://mirror.vorboss.net/centos/","",""
"EU","United Kingdom","XILO Communications Ltd.","http://www.xilo.net/","http://mirror.mhd.uk.as44574.net/mirror.centos.org/","",""
"Greenland","","Tele Greenland","http://www.tele.gl","http://mirror.greennet.gl/centos/","",""
"Middle East","Iraq","Al-Jazeera Al-Arabiya","http://jt.iq/","http://mirror.centos.jt.iq/","",""
"Middle East","Iraq","Earthlink Telecommunications","http://earthlink.iq/","http://mirror.earthlink.iq/centos/","",""
"Middle East","Israel","  uPress Inc","https://www.upress.io/","http://rep-centos-il.upress.io/","",""
"Middle East","Israel","Active.Cloud","https://activecloud.co.il/","http://centos.activecloud.co.il/","",""
"Middle East","Israel","Interhost Networks Ltd","http://www.interhost.co.il/","http://centos.interhost.net.il/","",""
"Middle East","Israel","Israel Internet Association (ISOC-IL)","http://www.isoc.org.il/","http://mirror.isoc.org.il/pub/centos/","https://mirror.isoc.org.il/pub/centos/",""
"Middle East","Israel","SPD Hosting LTD","http://www.spd.co.il/","http://centos.spd.co.il/","",""
"Middle East","Oman","Sultan Qaboos University","http://www.squ.edu.om/","http://mirror.squ.edu.om/centos/","",""
"Middle East","Saudi Arabia","KACST-ISU","https://www.isu.net.sa/","http://mirrors.isu.net.sa/pub/centos/","",""
"Middle-East","Afghanistan","Afghan Wireless Communications Company","https://www.afghan-wireless.com/","http://mirrors.afghan-wireless.com/centos/","https://mirrors.afghan-wireless.com/centos/",""
"Middle-East","Israel","HQserv Communication Solutions","https://www.hqserv.co.il/","http://centos.hqserv.co.il/","",""
"North America","Puerto Rico","University of Puerto Rico","https://www.upr.edu/","http://mirrors.upr.edu/centos/","https://mirrors.upr.edu/centos/","rsync://mirrors.upr.edu/centos/"
"Oceania","Australia","AARNet","http://mirror.aarnet.edu.au/","http://mirror.aarnet.edu.au/pub/centos/","https://mirror.aarnet.edu.au/pub/centos/","rsync://mirror.aarnet.edu.au/centos/"
"Oceania","Australia","Aus Net Servers Australia Pty Ltd","https://www.ausnetservers.com.au/","http://centos.mirror.ausnetservers.net.au/","",""
"Oceania","Australia","Colocation Australia Pty Ltd","http://coloau.com.au/","http://mirror.nsw.coloau.com.au/centos/","",""
"Oceania","Australia","Colocity","http://www.colocity.com/","http://mirror.colocity.com/centos/","",""
"Oceania","Australia","Digital Pacific","http://www.digitalpacific.com.au/","http://centos.mirror.digitalpacific.com.au/","","rsync://mirror.digitalpacific.com.au/centos/"
"Oceania","Australia","Hostcentral","http://www.hostcentral.net.au/","http://mirror.as24220.net/pub/centos/","","rsync://mirror.as24220.net/centos/"
"Oceania","Australia","Intergrid","https://intergrid.com.au/","http://mirror.intergrid.com.au/centos/","",""
"Oceania","Australia","Internode","http://www.internode.on.net/","http://mirror.internode.on.net/pub/centos/","",""
"Oceania","Australia","Over The Wire","http://www.overthewire.com.au/","http://mirror.overthewire.com.au/pub/centos/","","rsync://mirror.overthewire.com.au/centos/"
"Oceania","Australia","Servers Australia Pty Ltd.","http://www.serversaustralia.com.au/","http://centos.mirror.serversaustralia.com.au/","",""
"Oceania","Australia","Swinburne University of Technology","http://www.swin.edu.au/","http://ftp.swin.edu.au/centos/","","rsync://ftp.swin.edu.au/centos/"
"Oceania","Australia","VentraIP Australia","https://ventraip.com.au/","http://mirror.ventraip.net.au/centos/","https://mirror.ventraip.net.au/centos/",""
"Oceania","New Zealand","Free Software Mirror Group","https://fsmg.org.nz/","http://mirror.fsmg.org.nz/centos/","https://mirror.fsmg.org.nz/centos/","rsync://mirror.fsmg.org.nz/centos/"
"Oceania","New Zealand","Theo M.","https://theom.nz/","http://centos.mirrors.theom.nz/","https://centos.mirrors.theom.nz/","rsync://rsync.mirrors.theom.nz/centos/"
"Oceania","New Zealand","University of Canterbury","http://canterbury.ac.nz/","http://ucmirror.canterbury.ac.nz/linux/CentOS/","",""
"Oceania","New Zealand","wicks.co.nz","http://wicks.co.nz/","http://ftp.wicks.co.nz/pub/linux/dist/centos/","","rsync://ftp.wicks.co.nz/pub/linux/dist/centos/"
"Oceania","New Zealand","WorldxChange Communications Ltd","http://wxc.co.nz/","http://mirror.xnet.co.nz/pub/centos/","",""
"South America","Argentina","Sysarmy","https://sysarmy.com/","http://mirrors.eze.sysarmy.com/centos/","https://mirrors.eze.sysarmy.com/centos/",""
"South America","Argentina","Zero.com.ar","https://www.zero.com.ar/","http://centos.zero.com.ar/centos/","",""
"South America","Bolivia","MegaLink","http://www.megalink.com/","http://mirror.megalink.com/centos/","https://mirror.megalink.com/centos/",""
"South America","Brazil","Brisanet Internet","http://www.brisanet.com.br/","http://centos.brisanet.com.br/","",""
"South America","Brazil","College of Computing (FACOM/UFMS)","http://www.facom.ufms.br/","http://mirror.facom.ufms.br/centos/","",""
"South America","Brazil","Globo.com","http://www.globo.com/","http://mirror.globo.com/centos/","https://mirror.globo.com/centos/",""
"South America","Brazil","Hostdime Brazil","http://www.hostdime.com.br/","http://mirror-centos-jpa.hostdime.com.br/centos/","",""
"South America","Brazil","Instituto Federal do Espirito Santo","http://www.ci.ifes.edu.br/","http://mirror.ci.ifes.edu.br/centos/","https://mirror.ci.ifes.edu.br/centos/",""
"South America","Brazil","ITS Telecomunicacoes","http://www.itsbrasil.net/","http://centos.itsbrasil.net/","https://centos.itsbrasil.net/","rsync://centos.itsbrasil.net/centos/"
"South America","Brazil","State University of Campinas - UNICAMP","http://www.ccuec.unicamp.br/","http://ftp.unicamp.br/pub/centos/","","rsync://ftp.unicamp.br/centos/"
"South America","Brazil","Turbozone Internet"," https://www.turbozoneinternet.com.br","http://mirror.turbozoneinternet.net.br/centos/","https://mirror.turbozoneinternet.net.br/centos/","rsync://mirror.turbozoneinternet.net.br/centos/"
"South America","Brazil","UFSCar - Federal University of Sao Carlos","http://www.sin.ufscar.br/","http://mirror.ufscar.br/centos/","",""
"South America","Brazil","Universidade Federal do Amazonas","http://ufam.edu.br/","http://mirror.ufam.edu.br/centos/","",""
"South America","Brazil","Universidade Federal do Espírito Santo","http://www.ufes.br/","http://centos.ufes.br/","","rsync://centos.ufes.br/centos/"
"South America","Chile","Netglobalis S.A.","http://www.netglobalis.net/","http://mirror.netglobalis.net/centos/","",""
"South America","Chile","Orbyta S.A.","http://www.orbyta.com/","http://mirror.orbyta.com/","",""
"South America","Chile","Universidad de La Frontera","https://www.ufro.cl/","http://mirror.ufro.cl/centos/","https://mirror.ufro.cl/centos/","rsync://mirror.ufro.cl/centos/"
"South America","Chile","Universidad Tecnica Federico Santa Maria","http://portal.inf.utfsm.cl/","http://ftp.inf.utfsm.cl/pub/Linux/CentOS/","",""
"South America","Colombia","EdgeUNO","https://www.edgeuno.com/","https://mirror.edgeuno.net/centos/","https://mirror.edgeuno.net/centos/",""
"South America","Colombia","Universidad del Magdalena","http://www.unimagdalena.edu.co","http://mirror.unimagdalena.edu.co/centos/","","rsync://mirror.unimagdalena.edu.co/centos/"
"South America","Costa Rica","University of Costa Rica","http://www.ucr.ac.cr/","http://mirrors.ucr.ac.cr/centos/","https://mirrors.ucr.ac.cr/centos/","rsync://mirrors.ucr.ac.cr/centos/"
"South America","Ecuador","Consorcio Ecuatoriano para el Desarrollo de Internet Avanzado","http://www.cedia.org.ec/","http://mirror.cedia.org.ec/centos/","https://mirror.cedia.org.ec/centos/","rsync://mirror.cedia.org.ec/centos/"
"South America","Ecuador","Escuela Politécnica Nacional","http://www.epn.edu.ec/","http://mirror.epn.edu.ec/centos/","https://mirror.epn.edu.ec/centos/",""
"South America","Ecuador","ESPOCH (Escuela Superior Politécnica de Chimborazo)","http://www.espoch.edu.ec/","http://mirror.espoch.edu.ec/centos/","https://mirror.espoch.edu.ec/centos/","rsync://mirror.espoch.edu.ec/centos/"
"South America","Ecuador","Universidad Estatal de Bolivar","http://www.ueb.edu.ec/","http://mirror.ueb.edu.ec/centos/","",""
"South America","Ecuador","Universidad Técnica de Ambato, Tungurahua","http://www.uta.edu.ec/","http://mirror.uta.edu.ec/centos/","https://mirror.uta.edu.ec/centos/","rsync://mirror.uta.edu.ec/centos/"
"South America","Paraguay","Centro Nacional de Computación","https://www.cnc.una.py/","http://centos.mirror.py/centos/","",""
"South America","Uruguay","Facultad de Derecho, UdelaR","https://www.fder.edu.uy/","http://espejito.fder.edu.uy/centos/","https://espejito.fder.edu.uy/centos/","rsync://espejito.fder.edu.uy/centos/"
"US","","Facebook","https://www.facebook.com/","http://mirror.facebook.net/centos/","","rsync://mirror.facebook.net/centos/"
"US","","Oregon State University","http://osuosl.org/","http://ftp.osuosl.org/pub/centos/","","rsync://ftp.osuosl.org/centos/"
"US","","Rackspace","http://www.rackspace.com/","http://mirror.rackspace.com/CentOS/","",""
"US","AK","Research Computing Systems","https://www.gi.alaska.edu/research-computing-systems","http://mirrors.rcs.alaska.edu/centos/","",""
"US","AL","Teklinks","http://teklinks.com/","http://mirror.teklinks.com/centos/","",""
"US","AZ","1GServers","http://www.1gservers.com/","http://centos-distro.1gservers.com/","https://centos-distro.1gservers.com/","rsync://centos-distro.1gservers.com/files/"
"US","AZ","Rad Web Hosting","https://radwebhosting.com/","http://mirrors.radwebhosting.com/centos/","https://mirrors.radwebhosting.com/centos/","rsync://mirrors.radwebhosting.com/centos/"
"US","AZ","Spry Servers","https://www.spryservers.net","http://mirror.phx1.us.spryservers.net/centos/","https://mirror.phx1.us.spryservers.net/centos/","rsync://mirror.phx1.us.spryservers.net/centos/"
"US","AZ","University of Arizona","https://www.arizona.edu/","http://mirror.arizona.edu/centos/","https://mirror.arizona.edu/centos/","rsync://mirror.arizona.edu/centos/"
"US","CA","    Leaseweb","https://www.leaseweb.com/","http://mirror.sfo12.us.leaseweb.net/centos/","https://mirror.sfo12.us.leaseweb.net/centos/","rsync://mirror.sfo12.us.leaseweb.net/centos/"
"US","CA","   ServerForge","https://serverforge.org","http://mirror.centos.lax1.serverforge.org/","https://mirror.centos.lax1.serverforge.org/",""
"US","CA"," LayerHost","https://www.layerhost.com/","http://repos.lax.layerhost.com/centos/","","rsync://repos.lax.layerhost.com/centos/"
"US","CA"," xTom","https://xtom.com/","http://mirrors.xtom.com/centos/","https://mirrors.xtom.com/centos/",""
"US","CA","CodecCloud","https://www.hkserversolution.com/","http://mirrors.codec-cluster.org/centos/","https://mirrors.codec-cluster.org/centos/",""
"US","CA","Energy Sciences Network","http://www.es.net/","http://linux.mirrors.es.net/centos/","","rsync://linux.mirrors.es.net/centos/"
"US","CA","Fast Serv Networks, LLC","http://www.fastserv.com/web/","http://mirror.san.fastserv.com/pub/linux/centos/","",""
"US","CA","FilePlanet.com","http://www.fileplanet.com/","http://mirror.fileplanet.com/centos/","",""
"US","CA","Host Duplex, LLC","http://www.hostduplex.com/","http://mirror.hostduplex.com/centos/","","rsync://mirror.hostduplex.com/centos/"
"US","CA","keystealth.org","","http://mirror.keystealth.org/centos/","","rsync://mirror.keystealth.org/centos/"
"US","CA","Linux Kernel Archives","http://www.kernel.org/","http://mirrors.edge.kernel.org/centos/","","rsync://mirrors.kernel.org/centos/"
"US","CA","NDCHost","http://ndchost.com/","http://centos.mirror.ndchost.com/","",""
"US","CA","Open Computing Facility","https://www.ocf.berkeley.edu/","http://mirrors.ocf.berkeley.edu/centos/","https://mirrors.ocf.berkeley.edu/centos/","rsync://mirrors.ocf.berkeley.edu/centos/"
"US","CA","packet.net","https://packet.net/","http://sjc.edge.kernel.org/centos/","https://sjc.edge.kernel.org/centos/",""
"US","CA","psychz.net","http://www.psychz.net/","http://repos-lax.psychz.net/centos/","","rsync://repos-lax.psychz.net/Centos/"
"US","CA","QuadraNet","http://www.quadranet.com/","http://repos.lax.quadranet.com/centos/","","rsync://repos.lax.quadranet.com/centos/"
"US","CA","Shasta County Office of Education","http://www.shastacoe.org/","http://mirror.shastacoe.net/centos/","https://mirror.shastacoe.net/centos/","rsync://mirror.shastacoe.net/centos/"
"US","CA","Silicon Valley Web Hosting LLC","http://svwh.net/","http://mirror.sjc02.svwh.net/centos/","https://mirror.sjc02.svwh.net/centos/","rsync://mirror.sjc02.svwh.net/centos/"
"US","CA","Sonic","https://www.sonic.com/","http://mirrors.sonic.net/centos/","https://mirrors.sonic.net/centos/",""
"US","CA","University of California, Irvine","http://www.uci.edu/","http://mirrors.oit.uci.edu/centos/","https://mirrors.oit.uci.edu/centos/",""
"US","CO","FORETHOUGHT.net","http://forethought.net/","http://repos.forethought.net/centos/","",""
"US","CO","Mean Servers","https://www.meanservers.com/","http://mirror.den01.meanservers.net/centos/","",""
"US","CO","tummy.com","http://www.tummy.com","http://mirrors.tummy.com/mirrors/CentOS/","",""
"US","DC","     Leaseweb","https://www.leaseweb.com/","http://mirror.wdc1.us.leaseweb.net/centos/","https://mirror.wdc1.us.leaseweb.net/centos/","rsync://mirror.wdc1.us.leaseweb.net/centos/"
"US","DE","University of Delaware","http://ftp.lug.udel.edu/","http://mirror.lug.udel.edu/pub/centos/","",""
"US","FL","      Leaseweb","https://www.leaseweb.com/","http://mirror.mia11.us.leaseweb.net/centos/","https://mirror.mia11.us.leaseweb.net/centos/","rsync://mirror.mia11.us.leaseweb.net/centos/"
"US","FL","  QuadraNet","http://www.quadranet.com/","http://repos.mia.quadranet.com/centos/","","rsync://repos.mia.quadranet.com/centos/"
"US","FL"," Atlantic.Net","http://www.atlantic.net/","http://mirror.atlantic.net/centos/","","rsync://mirror.atlantic.net/centos/"
"US","FL","Ilumno Technologies","https://www.ilumno.com/","http://mirror.ilumno.com/centos/","https://mirror.ilumno.com/centos/","rsync://mirror.ilumno.com/centos/"
"US","FL","Mojohost","http://www.mojohost.com/","http://mirror.mojohost.com/centos/","",""
"US","FL","Nodes Direct","http://nodesdirect.com/","http://mirror.nodesdirect.com/centos/","https://mirror.nodesdirect.com/centos/","rsync://mirror.nodesdirect.com/centos/"
"US","FL","University of South Florida","http://www.usf.edu/","http://ftp.usf.edu/pub/centos/","",""
"US","GA","Genesis Adaptive Hosting","https://www.genesisadaptive.com","http://mirror.atl.genesisadaptive.com/centos/","https://mirror.atl.genesisadaptive.com/centos/","rsync://mirror.atl.genesisadaptive.com/centos/"
"US","GA","Georgia Tech","http://www.gtlib.gatech.edu/","http://www.gtlib.gatech.edu/pub/centos/","","rsync://rsync.gtlib.gatech.edu/centos/"
"US","GA","University of West Georgia","http://www.westga.edu/","http://reflector.westga.edu/repos/CentOS/","https://reflector.westga.edu/repos/CentOS/","rsync://reflector.westga.edu/CentOS/"
"US","GA","Virtual World Technologies","http://www.vwtonline.com","http://centos.vwtonline.net/centos/","https://centos.vwtonline.net/centos/",""
"US","HI","Advanced Network Computing Lab Hawaii","http://www.ancl.hawaii.edu/","http://mirror.ancl.hawaii.edu/linux/centos/","",""
"US","IL"," Genesis Adaptive Hosting","https://www.genesisadaptive.com/","http://mirror.lax.genesisadaptive.com/centos/","https://mirror.lax.genesisadaptive.com/centos/","rsync://mirror.lax.genesisadaptive.com/centos/"
"US","IL","Fermi National Accelerator Laboratory","https://www.fnal.gov/","http://linux-mirrors.fnal.gov/linux/centos/","https://linux-mirrors.fnal.gov/linux/centos/",""
"US","IL","Genesis Adaptive","https://www.genesisadaptive.com/","http://mirror.genesisadaptive.com/centos/","",""
"US","IL","Genesis Hosting","https://genesishosting.com/","http://mirror.genesishosting.com/centos/","",""
"US","IL","GIGENET","http://www.gigenet.com/","http://mirrors.gigenet.com/centos/","https://mirrors.gigenet.com/centos/",""
"US","IL","Northwestern University School of Education and Social Policy","http://www.sesp.northwestern.edu/","http://mirror.sesp.northwestern.edu/centos/","",""
"US","IL","Steadfast Networks","http://steadfast.net","http://mirror.steadfastnet.com/centos/","https://mirror.steadfastnet.com/centos/","rsync://mirror.steadfastnet.com/centos/"
"US","IL","Team Cymru","https://www.team-cymru.com/","http://mirror.team-cymru.com/CentOS/","","rsync://mirror.team-cymru.com/CentOS/"
"US","IL","University of Chicago","http://www.uchicago.edu/","http://mirror.grid.uchicago.edu/pub/linux/centos/","",""
"US","IL","University of Chicago, Astronomy","http://astro.uchicago.edu/","http://bay.uchicago.edu/centos/","","rsync://bay.uchicago.edu/CentOS/"
"US","IL","Your.Org","http://www.your.org/","http://ftpmirror.your.org/pub/centos/","https://ftpmirror.your.org/pub/centos/","rsync://ftpmirror.your.org/centos/"
"US","IN","Indiana University","http://pti.iu.edu/cs/software-applications/","http://ftp.ussg.iu.edu/linux/centos/","",""
"US","MA","Harvard SEAS ARC","http://www.seas.harvard.edu/","http://mirrors.seas.harvard.edu/centos/","",""
"US","MA","Massachusetts Institute of Technology","http://mit.edu/","http://mirrors.mit.edu/centos/","",""
"US","MA","TripAdvisor","http://www.tripadvisor.com/","http://mirrors.tripadvisor.com/centos/","https://mirrors.tripadvisor.com/centos/","rsync://mirrors.tripadvisor.com/centos/"
"US","MD","University of Maryland, College Park","http://www.umd.edu/","http://mirror.umd.edu/centos/","https://mirror.umd.edu/centos/","rsync://mirror.umd.edu/centos/"
"US","ME","University of Maine System, Information Technology Services","http://www.maine.edu/","http://mirrors.maine.edu/CentOS/","","rsync://mirrors.maine.edu/CentOS/"
"US","MI","Central Michigan University","http://www.cmich.edu/","http://mirrors.cmich.edu/centos/","",""
"US","MI","Linux/Unix Users Group at Michigan Tech","https://lug.mtu.edu/","http://mirrors.lug.mtu.edu/centos/","https://mirrors.lug.mtu.edu/centos/","rsync://mirrors.lug.mtu.edu/centos/"
"US","MI","Liquid Web, Inc.","http://www.liquidweb.com/","http://mirrors.liquidweb.com/CentOS/","","rsync://mirrors.liquidweb.com/CentOS/"
"US","MI","MBNI, U of Michigan, USA","http://www.mbni.med.umich.edu/","http://repo.miserver.it.umich.edu/centos/","https://repo.miserver.it.umich.edu/centos/",""
"US","MI","Nexcess.net","https://www.nexcess.net/","http://mirror.us-midwest-1.nexcess.net/CentOS/","https://mirror.us-midwest-1.nexcess.net/CentOS/",""
"US","MI","University of Michigan-Flint","http://www.umflint.edu/","http://mirrors.umflint.edu/CentOS/","",""
"US","MN","US Internet","http://www.usinternet.com/","http://mirrors.usinternet.com/centos/","","rsync://mirrors.usinternet.com/centos/"
"US","MO","Compevo Communications","http://www.compevo.com/","http://mirror.compevo.com/centos/","",""
"US","MO","Missouri Baptist University","https://www.mobap.edu/","http://mirror.mobap.edu/centos/","",""
"US","MO","xrepo.net","http://www.xrepo.net","http://mirror.xrepo.net/centos/","",""
"US","NC"," North Carolina State University","http://www.ncsu.edu/","http://packages.oit.ncsu.edu/centos/","https://packages.oit.ncsu.edu/centos/","rsync://packages.oit.ncsu.edu/centos/"
"US","NC","Duke University","http://www.linux.duke.edu/","http://mirror.linux.duke.edu/pub/centos/","","rsync://mirror.linux.duke.edu/centos/"
"US","NC","ibiblio.org","http://www.ibiblio.org/","http://distro.ibiblio.org/centos/","","rsync://distro.ibiblio.org/centos/"
"US","NH","MetroCast Cablevision","http://www.metrocast.com/","http://mirror.metrocast.net/centos/","",""
"US","NJ"," packet.net","https://packet.net/","http://ewr.edge.kernel.org/centos/","https://ewr.edge.kernel.org/centos/",""
"US","NJ","Constant Hosting","http://constant.com/","http://centos.mirror.constant.com/","https://centos.mirror.constant.com/",""
"US","NJ","interserver.net","http://interserver.net/","http://mirror.trouble-free.net/centos/","","rsync://mirror.trouble-free.net/centos/"
"US","NJ","Princeton University Department of Mathematics","http://www.math.princeton.edu/","http://mirror.math.princeton.edu/pub/centos/","https://mirror.math.princeton.edu/pub/centos/","rsync://mirror.math.princeton.edu/pub/centos/"
"US","NY","Atlantic Metro Communications","http://www.atlanticmetro.net/","http://mirror.atlanticmetro.net/centos/","https://mirror.atlanticmetro.net/centos/",""
"US","NY","Clarkson Open Source Institute","http://cosi.clarkson.edu/","http://mirror.clarkson.edu/centos/","",""
"US","NY","Columbia University","http://www.columbia.edu/","http://mirror.cc.columbia.edu/pub/linux/centos/","","rsync://mirror.cc.columbia.edu/centos/"
"US","NY","NYU","http://www.nyu.edu/","http://mirror.es.its.nyu.edu/centos/","","rsync://mirror.es.its.nyu.edu/centos/"
"US","NY","Rochester Institute of Technology","http://www.rit.edu/","http://mirrors.rit.edu/centos/","","rsync://mirrors.rit.edu/centos/"
"US","NY","Siena College","https://www.siena.edu/","http://mirror.siena.edu/centos/","","rsync://mirror.siena.edu/centos/"
"US","OK","University of Oklahoma","http://www.ou.edu/web.html","http://mirror.oss.ou.edu/centos/","","rsync://mirror.oss.ou.edu/centos/"
"US","OR","DirectLink","https://www.directlink.coop/","http://mirror.web-ster.com/centos/","https://mirror.web-ster.com/centos/","rsync://mirror.web-ster.com/centos/"
"US","OR","Portland State Univ.","http://www.cat.pdx.edu/","http://mirrors.cat.pdx.edu/centos/","https://mirrors.cat.pdx.edu/centos/","rsync://mirrors.cat.pdx.edu/centos/"
"US","OR","TOCICI LLC","http://www.tocici.com/","http://mirror.tocici.com/centos/","",""
"US","PA","1&1 Internet Inc.","http://www.1and1.com/","http://mirror.us.oneandone.net/linux/distributions/centos/","","rsync://mirror.us.oneandone.net/centos/"
"US","PA","Datto Inc.","http://datto.com","http://mirror.datto.com/CentOS/","",""
"US","PA","Department of Computer Science, University of Pittsburgh","http://cs.pitt.edu/","http://mirror.cs.pitt.edu/centos/","","rsync://mirror.cs.pitt.edu/centos/"
"US","PA","Hobby Classifieds","http://www.hoobly.com/","http://centos.mirrors.hoobly.com/","",""
"US","PA","Lehigh University","http://www.lehigh.edu/","http://linux.cc.lehigh.edu/centos/","",""
"US","PA","TeraSwitch Networks Inc.","https://teraswitch.com/","http://mirror.pit.teraswitch.com/centos/","","rsync://mirror.pit.teraswitch.com/centos/"
"US","SD","Dakota State University","https://dsu.edu/","http://repo.ialab.dsu.edu/centos/","https://repo.ialab.dsu.edu/centos/",""
"US","TN","Twin Lakes","http://twinlakes.net/","http://mirror.twinlakes.net/centos/","","rsync://mirror.twinlakes.net/centos/"
"US","TX","  InnoScale","https://innoscale.net/","http://repo1.dal.innoscale.net/centos/","","rsync://repo1.dal.innoscale.net/centos/"
"US","TX","  Leaseweb","https://www.leaseweb.com/","http://mirror.dal10.us.leaseweb.net/centos/","https://mirror.dal10.us.leaseweb.net/centos/","rsync://mirror.dal10.us.leaseweb.net/centos/"
"US","TX"," psychz.net","http://www.psychz.net/","http://repos-tx.psychz.net/centos/","","rsync://repos-tx.psychz.net/Centos/"
"US","TX"," QuadraNet","http://www.quadranet.com/","http://repos.dfw.quadranet.com/centos/","","rsync://repos.dfw.quadranet.com/centos/"
"US","TX","Academy for Advanced Telecommunications and Learning Technology at Texas A&M University","http://academy.tamu.edu/","http://yum.tamu.edu/centos/","",""
"US","TX","LayerHost","https://www.layerhost.com/","http://repos.hou.layerhost.com/centos/","","rsync://repos.hou.layerhost.com/centos/"
"US","TX","Limestone Networks","http://www.limestonenetworks.com/","http://centos.mirror.lstn.net/","","rsync://centos.mirror.lstn.net/centos/"
"US","TX","Netdepot LLC","http://www.netdepot.com/","http://mirror.netdepot.com/centos/","","rsync://mirror.netdepot.com/centos/"
"US","TX","Nexril","https://nexril.net/","http://mirror.dal.nexril.net/centos/","https://mirror.dal.nexril.net/centos/","rsync://mirror.dal.nexril.net/centos/"
"US","TX","Ray Stedman Ministries","https://raystedman.org/","http://mirrors.raystedman.org/centos/","https://mirrors.raystedman.org/centos/","rsync://mirrors.raystedman.org/centos/"
"US","UT","University of Utah","http://www.chpc.utah.edu/","http://mirror.chpc.utah.edu/pub/centos/","https://mirror.chpc.utah.edu/pub/centos/","rsync://mirror.chpc.utah.edu/pub/centos/"
"US","UT","XMission","http://www.xmission.com/","http://mirrors.xmission.com/centos/","","rsync://mirrors.xmission.com/centos/"
"US","VA","  psychz.net","http://www.psychz.net/","http://repos-va.psychz.net/centos/","","rsync://repos-va.psychz.net/Centos/"
"US","VA"," Fast Serv Networks, LLC","https://www.fastserv.com/","http://mirror.ash.fastserv.com/centos/","",""
"US","VA"," ServerForge","https://serverforge.org","http://mirror.centos.iad1.serverforge.org/","https://mirror.centos.iad1.serverforge.org/",""
"US","VA"," zswap.net","http://zswap.net/","http://centos4.zswap.net/","https://centos4.zswap.net/","rsync://centos4.zswap.net/centos/"
"US","VA","AdvancedHosters","http://advancedhosters.com/","http://mirrors.advancedhosters.com/centos/","","rsync://mirrors.advancedhosters.com/centos/"
"US","VA","Cogent Communications","http://www.cogentco.com/","http://mirror.cogentco.com/pub/linux/centos/","","rsync://mirror.cogentco.com/CentOS/"
"US","VA","InnoScale","https://innoscale.net/","http://repo1.ash.innoscale.net/centos/","","rsync://repo1.ash.innoscale.net/centos/"
"US","VA","NSEC","http://www.nsec.pt/","http://us.mirror.nsec.pt/centos/","",""
"US","VA","Virginia Commonwealth University","http://www.vcu.edu/","http://mirror.vcu.edu/pub/gnu_linux/centos/","https://mirror.vcu.edu/pub/gnu_linux/centos/","rsync://mirror.vcu.edu/centos/"
"US","VA","Virginia Tech","http://mirror.cs.vt.edu/","http://mirror.cs.vt.edu/pub/CentOS/","",""
"US","VA","Virginia Tech Transportation Institute","http://www.vtti.vt.edu/","http://mirror.vtti.vt.edu/centos/","",""
"US","VT","Green Mountain Access","http://www.greenmountainaccess.net/","http://mirrors.greenmountainaccess.net/centos/","","rsync://mirrors.greenmountainaccess.net/centos/"
"US","WA"," InnoScale","https://innoscale.net/","http://repo1.sea.innoscale.net/centos/","","rsync://repo1.sea.innoscale.net/centos/"
"US","WA","Jaleco.com","https://www.jaleco.com/","http://mirror.jaleco.com/centos/","https://mirror.jaleco.com/centos/",""
"US","WA","University of Washington","http://www.uw.edu/","http://centos.s.uw.edu/centos/","",""
"US","WA","Voiland College of Engineering and Architecture, Washington State University","https://vcea.wsu.edu/","http://mirrors.vcea.wsu.edu/centos/","","rsync://mirrors.vcea.wsu.edu/centos/"
"US","WI","TDS Internet Services","http://mirrors.tds.net/","http://centos.mirrors.tds.net/pub/linux/centos/","","rsync://centos.mirrors.tds.net/centos/"
"US","WI","University of Wisconsin-Parkside Computer Science Department","http://www.cs.uwp.edu/","http://mirror.cs.uwp.edu/pub/centos/","https://mirror.cs.uwp.edu/pub/centos/",""
